[
    {
        "_id": 1,
        "orderID": 87452,
        "lineNumber": 1,
        "productKey": "Coffee Mug",
        "quantity" : 1
    },
    {
        "_id": 2,
        "orderID": 87452,
        "lineNumber": 2,
        "productKey": "Tshirt",
        "quantity" : 1
    }
]